{
    "packageDirectories": [
        {
            "path": "force-app",
            "default": true,
            "package": "dreamhouse",
            "versionNumber": "3.0.0.NEXT",
            "versionName": "Winter '19"
        }
    ],
    "namespace": "",
    "sfdcLoginUrl": "https://login.salesforce.com",
    "sourceApiVersion": "46.0",
    "packageAliases": {
        "dreamhouse": "",
        "dreamhouse@2.0.0-4": "",
        "dreamhouse@3.0.0-5": ""
    }
}
